<?xml version="1.0" encoding="utf-8"?>
<!-- Generator: Adobe Illustrator 23.0.4, SVG Export Plug-In . SVG Version: 6.00 Build 0)  -->
<svg version="1.1" id="Calque_1" xmlns="http://www.w3.org/2000/svg" xmlns:xlink="http://www.w3.org/1999/xlink" x="0px" y="0px"
	 viewBox="0 0 100 103" style="enable-background:new 0 0 100 103;" xml:space="preserve">
<style type="text/css">
	.st0{fill:#4EAF47;}
	.st1{fill:#FFFFFF;}
</style>
<polygon class="st0" points="93.7,77.5 93.7,26.5 49.5,1 5.3,26.5 5.3,77.5 49.5,103 "/>
<path class="st1" d="M31.4,57.9v5.8h-9.7c-0.6,0-1.1-0.2-1.6-0.7c-0.4-0.4-0.7-1-0.7-1.6v-3c0-1.4,0.5-2.7,1.5-3.7
	c1-1,2.3-1.5,3.7-1.5H26c1.9,1.1,3.9,1.6,6,1.5C31.6,55.7,31.4,56.8,31.4,57.9z M24,44.3c0,2.1,0.7,3.8,2.2,5.3
	c1.5,1.5,3.2,2.2,5.3,2.2s3.8-0.7,5.3-2.2c1.5-1.5,2.2-3.2,2.2-5.3c0-2.1-0.7-3.8-2.2-5.3c-1.5-1.5-3.2-2.2-5.3-2.2
	s-3.8,0.7-5.3,2.2C24.7,40.5,24,42.2,24,44.3z M57.7,51.4H56c-2.1,1.2-4.3,1.9-6.7,1.9s-4.7-0.6-6.7-1.9h-1.7
	c-1.8,0-3.3,0.6-4.6,1.9s-1.9,2.8-1.9,4.6v6.5c0,0.6,0.2,1.1,0.7,1.6s1,0.7,1.6,0.7H62c0.6,0,1.1-0.2,1.6-0.7s0.7-1,0.7-1.6v-6.5
	c0-1.8-0.6-3.3-1.9-4.6S59.5,51.4,57.7,51.4z M40,40.2c0,2.5,0.9,4.7,2.7,6.6s4,2.7,6.6,2.7c2.5,0,4.7-0.9,6.6-2.7
	c1.8-1.8,2.7-4,2.7-6.6c0-2.5-0.9-4.7-2.7-6.6c-1.8-1.8-4-2.7-6.6-2.7c-2.5,0-4.7,0.9-6.6,2.7C40.9,35.4,40,37.6,40,40.2z
	 M59.8,44.3c0,2.1,0.7,3.8,2.2,5.3c1.5,1.5,3.2,2.2,5.3,2.2s3.8-0.7,5.3-2.2c1.5-1.5,2.2-3.2,2.2-5.3c0-2.1-0.7-3.8-2.2-5.3
	c-1.5-1.5-3.2-2.2-5.3-2.2S63.4,37.5,62,39C60.5,40.5,59.8,42.2,59.8,44.3z M73.9,53.2c1.4,0,2.7,0.5,3.7,1.5s1.5,2.3,1.5,3.7v3
	c0,0.6-0.2,1.1-0.7,1.6c-0.4,0.4-1,0.7-1.6,0.7h-9.7v-5.8c0-1.1-0.2-2.2-0.6-3.2c2.1,0.1,4.1-0.4,6-1.5H73.9z"/>
</svg>
