<?xml version="1.0" encoding="utf-8"?>
<!-- Generator: Adobe Illustrator 23.0.4, SVG Export Plug-In . SVG Version: 6.00 Build 0)  -->
<svg version="1.1" id="Calque_1" xmlns="http://www.w3.org/2000/svg" xmlns:xlink="http://www.w3.org/1999/xlink" x="0px" y="0px"
	 viewBox="0 0 256.6 299.3" style="enable-background:new 0 0 256.6 299.3;" xml:space="preserve">
<style type="text/css">
	.st0{opacity:0.5;}
</style>
<g>
	<path d="M58.3,52.2h2.8L106.3,25l0,27.2h2.9l0-29.8c0-0.5-0.3-1-0.7-1.3c-0.5-0.3-1-0.3-1.5,0L57.5,51c-0.4,0.3-0.7,0.7-0.7,1.3
		v149.2c0,0.8,0.7,1.5,1.5,1.5V52.2z"/>
	<path d="M252.5,64.7c0.5-0.9,0.9-1.8,1.3-2.7c0.2-0.4,0.4-0.8,0.6-1.2c0.1-0.2,0.1-0.4,0.1-0.6v-2.8c0-0.2,0-0.4-0.1-0.6l-0.1-0.2
		c0-0.1-0.1-0.1-0.1-0.2c-1.1-3.9-3.5-5.7-7.5-5.7h-88.5H63.7c12-7.2,24.1-14.4,36.1-21.6l5.7-3.4c0.7-0.4,1.4-0.9,2.1-1.3l0.9-0.6
		c0.5-0.3,0.8-1,0.7-1.6l-0.1-0.2c-0.2-0.7-0.7-1.1-1.4-1.1H15.9l0-3.2c0-2.6,0-5.1,0-7.7c0-2.3-0.9-4.3-2.6-5.7
		c-0.7-0.5-1.4-0.9-2.1-1.2c-0.3-0.1-0.5-0.2-0.8-0.4C10.2,2.8,10,2.7,9.7,2.7H7.1c-0.2,0-0.3,0-0.5,0.1C3.7,3.8,1.8,5.9,1,9
		c0,0.1,0,0.2,0,0.4v281.8c0,0.2,0,0.3,0.1,0.5l0.4,1.2c0.8,2.3,2.5,3.9,4.8,4.7c0.7,0.2,1.5,0.3,2.2,0.3c1.5,0,3-0.5,4.2-1.4
		c1.9-1.4,3.1-3.8,3.1-6.4l0-108.4h40.9V210c0,0.8,0.7,1.5,1.5,1.5h99.9c0,0,0,0,0,0h23l65.9,0c3.2,0,5.5-1.6,6.7-4.5l0.6-1.4
		c0.1-0.2,0.1-0.4,0.1-0.6v-3c0-0.2-0.1-0.5-0.2-0.7c-0.9-1.6-1.8-3.2-2.7-4.9c-1.9-3.5-4-7.2-6-10.7c-9.2-16-18.4-32-27.7-48
		l-1.9-3.2c-1.3-2.3-1.3-4.4,0-6.7C228.3,106.7,240.4,85.7,252.5,64.7z M59.8,180.2v-24.7c0-30.6,0-61.2,0-91.8c0-2.3,0-4.8,0.1-7.6
		c0-0.9,0.2-1.7,0.5-2.4h96.3v154.9h-97V180.2z"/>
</g>
<polygon class="st0" points="107.7,52.4 107.7,22.4 58.3,52.2 58.3,52.4 "/>
</svg>
