{
    "slug" : "ctenat",
    "welcomeTpl" : "costum.views.custom.ctenat.home",
    "docTpl" : "costum.views.custom.ctenat.doc",
    "host":"cte.ecologique-solidaire.gouv.fr",
    "sourceKey" : true,
    "filters" : {
        "sourceKey" : true
    },
    "js" : {
        "urls" : [ 
            "index.js"
        ]
    },
    "pdf" : {
        "answers" : "costum.views.custom.ctenat.pdf.answers"
    },
    "class" : {
        "function" : [ "urlAfterSave", "pdfElement", "surveyAfterSave", "prepData", "elementBeforeSave", "isElementAdmin", "isElementMember", "init", "elementAfterSave", "elementAfterUpdate", "canSeeAnswer", "canEditAnswer", "authorizedPanelAdmin" ]
    },
    "admin" : {
        "email" : "cte@developpement-durable.gouv.fr",
        "accessMember" : true
    },
    "mailsConfig":{
        "inviteYou":{
            "tpl":"costum.views.custom.ctenat.mails.inviteYouTo"
        },
        "invitation":{
            "tpl":"costum.views.custom.ctenat.mails.invitation"
        }
    },
    "initScript" : "costum.views.custom.ctenat.init",
    "favicon" : "/images/ctenat/logo.png",
    "metaImg" : "/images/ctenat/banner.jpg",
    "logoMin" : "/images/ctenat/logo.png",
    "css" : {
        "urls" : [ 
            "index.css",
            "filters.css"
        ],
        "loader" : {
            "background" : "white",
            "ring1" : {
                "color" : "#22252A",
                "height" : 360,
                "width" : 360,
                "left" : -15,
                "borderWidth" : 4,
                "top" : -35
            },
            "ring2" : {
                "color" : "#65BA91",
                "height" : 350,
                "width" : 350,
                "left" : -10,
                "borderWidth" : 5,
                "top" : -30
            }
        },
        "progress" : {
            "value" : {
                "background" : "#22252A"
            },
            "bar" : {
                "background" : "#fff"
            }
        },
        "menuTop" : {
            "background" : "white",
            "button" : {
                "paddingTop" : 0,
                "fontSize" : 30,
                "color" : "#22252A"
            },
            "scopeBtn" : {
                "color" : "#22252A"
            },
            "filterBtn" : {
                "color" : "#22252A"
            },
            "badge" : {
                "background" : "#5fad88",
                "border" : "1px solid white"
            },
            "connectBtn" : {
                "background" : "#22252A",
                "color" : "white",
                "fontSize" : 18,
                "borderRadius" : 10,
                "padding" : "8px 15px"
            }
        },
        "menuApp" : {
            "background" : "#22252A",
            "button" : {
                "fontSize" : 25,
                "color" : "#fff",
                "hover" : {
                    "borderBottom" : "2px solid #fff"
                }
            }
        },
        "button" : {
            "footer" : {
                "add" : {
                    "bottom" : 60,
                    "background" : "transparent",
                    "color" : "white"
                },
                "toolbarAdds" : {
                    "bottom" : 50
                }
            }
        },
        "color" : {
            "purple" : "#22252A"
        }
    },
    "htmlConstruct" : {
        "appRendering" : "vertical",
        "preview": {
            "element" : "costum.views.custom.ctenat.element.preview"
        },
        "element" : {
            "urlTpl" : {
                "poi" : {
                    "indicator" : "costum.views.custom.ctenat.element.indicator"
                }
            },
            "js" : "pageProfil.js",
            "css" : "pageProfil.css",
            "banner" : {
                "img" : "/images/ctenat/banner.jpg",
                "preferences" : false,
                "editButton" : {
                    "dynform" : true
                },
                "badges" : false,
                "headerInfos": "costum.views.custom.ctenat.element.headerInfos"
            },
            "initView" : "home",
            "containerClass" : {
                "menuTop" : true,
                "menuTopImage" : true,
                "menuTopGroupBtn" : true,
                "menuLeft" : "hidden",
                "centralSection" : "col-xs-12",
                "centralSectionSub" : "col-xs-12 col-md-10 col-md-offset-1 col-lg-10 col-lg-offset-1 shadow2"
            },
            "menuLeft" : false,
            "menuTop" : {
                "img" : true,
                "btnGroup" : {
                    "imgProfil":true,
                    "nameProfil":true,
                    "home" : {
                        "label" : "Accueil",
                        "icon" : "home",
                        "view" : "home",
                        "class":"hidden-xs"
                    },
                    "community" : {
                        "label" : "Community",
                        "icon" : "users",
                        "class" : "hidden-xs",
                        "view" : "community",
                        "dataAttr" : {
                            "icon" : "users"
                        }
                    },
                    "projects" : {
                        "label" : "Actions",
                        "icon" : "lightbulb-o",
                        "view" : "projects",
                        "class" : "hidden-xs",
                        "categoryAllow":"cteR",
                        "dataAttr" : {
                            "dir" : "projects",
                            "icon" : "lightbulb-o"
                        },
                        "typeAllow" : [ 
                            "projects"
                        ]
                    },
                    "projectsOthers" : {
                        "label" : "Projects",
                        "icon" : "lightbulb-o",
                        "class" : "hidden-xs",
                        "view":"directory",
                        "dataAttr" : {
                            "dir" : "projects",
                            "icon" : "lightbulb-o"
                        },
                        "typeAllow" : [                              
                            "citoyens", 
                            "organizations"
                        ]
                    },
                    "dashboard" : {
                        "label" : "En chiffres",
                        "icon" : "tachometer",
                        "view" : "dashboard",
                        "class":"hidden-xs",
                        "categoryAllow":"cteR",
                        "urlExtra" : "/url/costum.views.custom.ctenat.dashboard",
                        "typeAllow" : [ 
                            "projects"
                        ]
                    },
                    "events" : {
                        "label" : "Agenda",
                        "icon" : "calendar",
                        "view" : "directory",
                        "class" : "hidden-xs",
                        "dataAttr" : {
                            "dir" : "events",
                            "icon" : "calendar"
                        }
                    },
                    "newspaper" : {
                        "label" : "Newspaper",
                        "icon" : "rss",
                        "class":"hidden-xs",
                        "view" : "newspaper"
                    },
                    "answer":{
                        "label" : "Candidature",
                        "icon" : "list-alt",
                        "onlyMember":true,
                        "class":"hidden-xs",
                        "typeAllow":["projects"],
                        "categoryAllow":"ficheAction",
                        "view" : "answers"
                    },
                    "settings":{
                        "label" : "Paramètres",
                        "icon" : "cogs",
                        "class" : "",
                        "edit":true,
                        "class":"hidden-xs",
                        "typeAllow":["citoyens"],
                        "action" : "settingsAccount"
                    },
                    "admin":{
                        "label" : "Admin<span class='hidden-sm'>istration</span>",
                        "icon" : "cogs",
                        "class" : "text-red",
                        "onlyMember":true,
                        "class":"hidden-xs",
                        "typeAllow":["projects"],
                        "categoryAllow":"cteR",
                        "view" : "adminCter"
                    }
                },
                "openMenuXs":true
            }
        },
        "menuBottom" : {
            "donate" : false,
            "add" : false
        },
        "header" : {
            "menuTop" : {
                "navLeft" : {
                    "logo" : {
                        "height" : 40
                    },
                    "searchBar" : true,
                    "useFilter" : {
                        "scopeFilter" : false,
                        "showFilter" : false
                    }
                },
                "navRight" : {
                    "connected" : {
                        "dropdownUser" : {
                            "languages" : false,
                            "statistics" : false,
                            "documentation" : false,
                            "donate" : false,
                            "admin" : {"onlyMember":true},
                            "settings" : false,
                            "logout" : true
                        },
                        "userProfil" : {
                            "img" : true,
                            "name" :false
                        },
                        "networkFloop" : true,
                        "notifications" : true,
                        "dda" : false,
                        "chat" : true,
                        "home" : false,
                        "app" : false,
                        "map" : true
                    },
                    "disconnected" : {
                        "languages" : false,
                        "login" : true,
                        "map" : true
                    }
                }
            }
        },
        "subMenu" : {
            "fontSize" : 40,
            "app" : true,
            "button" : true
        },
        "adminPanel" : {
            "js":true,
            "add" : true,
            "menu":{
                "territory" : {
                    "label" : "Territoires",
                    "class" : "text-dark",
                    "view" : "territory",
                    "icon" : "map-marker"
                },
                "actionsFiche" : {
                    "label" : "Fiches actions",
                    "class" : "text-purple",
                    "view" : "actionsCTE",
                    "icon" : "lightbulb-o"
                },
                "users" : {
                    "label": "Utilisateur-trices",
                    "icon" : "user",
                    "view" : "users",
                    "class" : "text-yellow"
                },
                "community" : {"label": "Communauté CTE national", "show":true},
                "organizations" : {
                    "label": "Organisations CTE",
                    "icon" : "users",
                    "view" : "organizations",
                    "class" : "text-green"
                },
                "importindicateur" : {
                    "label": "Import des indicateurs",
                    "icon" : "upload",
                    "view" : "importindicateur",
                    "class" : "text-blue"
                },
                "importorga" : {
                    "label": "Import des orga",
                    "icon" : "upload",
                    "view" : "importorga",
                    "class" : "text-green"
                },
                "indicators" : {
                    "label": "Liste des indicateurs",
                    "icon" : "upload",
                    "view" : "indicators",
                    "class" : "text-red"
                },
                "importorga" : {
                    "label": "Import des orgas",
                    "icon" : "upload",
                    "view" : "importorga",
                    "class" : "text-green"
                },
                "reference" : {
                    "label" : "Référencement",
                    "show":true,
                    "initType" : [ 
                        "organizations"
                    ]
                },
                "badges" : {
                    "label" : "Etiquetages (badges)",
                    "class" : "text-dark",
                    "view" : "badges",
                    "icon" : "bookmark",
                    "types" : [ 
                        "badges"
                    ],
                    "table" : {
                       },
                    "actions" : {
                        "edit" : true
                    }
                },
                "statistic" : true
            }
        },
        "directoryViewMode" : "block",
        "directory" : {
            "header" : {
                "map" : false,
                "viewMode" : false,
                "add" : false
            },
            "preview" : true,
            "results" : {
                "projets" : {
                    "defaultImg" : "/images/ctenat/default_directory.png"
                }
            },
            "footer" : {
                "add" : true
            }
        },
        "footer" : {
            "url" : "costum.views.custom.ctenat.footer"
        },
        "redirect" : {
            "logged" : "welcome",
            "unlogged" : "welcome",
            "register" : "welcome"
        }
    },
    "app" : {
        "#welcome" : {
            "subdomainName" : "Accueil national",
            "useMapBtn":false
        },
        "#accueil" : {
            "hash" : "#app.welcome",
            "icon" : "home",
            "subdomainName" : "Accueil national",
            "placeholderMainSearch" : "what are you looking for ?",
            "inMenu":true,
            "useFilter":false,
            "useHeader":true,
            "useFooter":true,
            "dropdownResult":true,
            "useMapBtn":false
        },
        "#territoires" : {
            "hash" : "#app.search",
            "icon" : "map-marker",
            "header":"costum.views.custom.ctenat.filters",
            "urlExtra" : "/page/territoires",
            "subdomainName" : "Tous les territoires CTE",
            "placeholderMainSearch" : "what are you looking for ?",
            "inMenu":true,
            "useHeader" : false,
            "useFilter" : true,
            "useFooter" : true,
            "filters" : {
                "category":"cteR",
                "types" : [ 
                    "projects"
                ]
            },
            "searchObject" : {
                "indexStep" : "0"
            }
        },
        "#projects" : {
            "hash" : "#app.search",
            "icon" : "lightbulb-o",
            "header":"costum.views.custom.ctenat.filters",
            "urlExtra" : "/page/projects",
            "useHeader" : false,
            "useFilter" : true,
            "useFooter" : true,
            "inMenu" : true,
            "subdomainName" : "Toutes les actions",
            "filters" : {
                "types" : [ 
                    "projects"
                ],
                "category" : "ficheAction"
            },
            "searchObject" : { "indexStep" : 0},
            "placeholderMainSearch" : "what are you looking for ?"
        },
        "#agenda" : {
            "subdomainName" : "Agenda des CTEs",
            "placeholderMainSearch" : "what are you looking for ?",
            "useFilter":false,
            "onlyMember" : true
        },
        "#dashboard" :{
            "hash" : "#ctenat.dashboard",
            "icon" : "tachometer",
            "module":"costum",
            "header":"costum.views.custom.ctenat.filters",
            "urlExtra" : "/url/costum.views.custom.ctenat.dashboard",
            "useHeader" : true,
            "useFilter" : false,
            "useFooter" : true,
            "inMenu" : true,
            "dropdownResult":true,
            "subdomainName" : "En chiffres",
            "filters" : {
                "types" : [ 
                    "projects"
                ],
                "category" : "ficheAction"
            },
            "placeholderMainSearch" : "what are you looking for ?",
            "useMapBtn":false
        },
        "#live" : {
            "subdomainName" : "Les contrats de Transition en live",
            "placeholderMainSearch" : "what are you looking for ?",
            "setParams" : {"source":"ctenat"},
            "onlyMember" : true,
            "formCreate" : true,
            "useFilter" : false,
            "useMapBtn":false
        },
        "#forum" : {
            "hash":"#app.view",
            "subdomainName" : "Forum",
            "icon" : "comments",
             "urlExtra" : "/page/forum/url/costum.views.custom.ctenat.forum",
            "inMenu" : true,
            "onlyMember" : true,
            "placeholderMainSearch" : "what are you looking for ?",
            "useFilter" : false,
            "dropdownResult":true,
            "useMapBtn":false
        },
        "#press" : {
            "hash":"#app.view",
            "subdomainName" : "Presse",
            "icon" : "rss",
             "urlExtra" : "/page/press/url/costum.views.custom.ctenat.press",
            "inMenu" : true,
            "onlyMember" : true,
            "dropdownResult":true,
            "placeholderMainSearch" : "what are you looking for ?",
            "useFilter" : false,
            "useMapBtn":false
        },
        "#documentation" : {
            "hash":"#app.docs.page.welcome",
            "subdomainName" : "Documentation",
            "icon" : "book",
            "inMenu" : true,
            "onlyMember" : true,
            "dropdownResult":true,
            "placeholderMainSearch" : "what are you looking for ?",
            "useFilter" : false,
            "useMapBtn":false
        },
        "#search" : {
            "subdomainName" : "Recherche globale",
            "icon" : "loop",
            "inMenu" : false,
            "placeholderMainSearch" : "what are you looking for ?",
            "useFilter" : false,
            "filters" : {
                "types" : [ 
                    "organizations", 
                    "projects",
                    "events"
                ]
            },
            "useMapBtn":false
        }
    },
    "typeObj" : {
        "organizations":{
            "add":"onlyAdmin"
        },
        "events":{
            "add":"onlyAdmin",
            "dynFormCostum" : {
                 "onload" : {
                    "actions" : {
                        "hide" : {
                            "parentfinder":1
                        }
                    }
               }
            }
        },
        "indicator" : {
            "color" : "azure",
            "icon" : "book",
            "name" : "Indicateur",
            "sameAs" : "poi",
            "formType" : "indicator",
            "formParent" : "poi",
            "add" : false,
            "createLabel" : "Modifier un indicateur",
            "dynFormCostum" : {
                "beforeBuild" : {
                    "properties" : {
                        "name" : {
                            "label":"Intitulé de l’indicateur",
                            "placeholder":"Intitulé de l’indicateur",
                            "rules" : {
                                "required" : true
                            }
                        },
                        "domainAction" : {
                            "inputType" : "select",
                            "label" : "Domaines(s) d’action",
                            "placeholder" : "Choisir un domaine d'action",
                            "groupOptions" : true,
                            "groupSelected" : true,
                            "list" : "domainAction",
                            "select2" : {
                                "multiple" : true
                            },
                            "rules" : {
                                "required" : true
                            }
                        },
                        "objectifDD" : {
                            "inputType" : "select",
                            "label" : "Objectif(s) de développement durable",
                            "groupOptions" : true,
                            "groupSelected" : true,
                            "placeholder" : "Choisir un objectif(s) de développement durable",
                            "list" : "cibleDD",
                            "select2" : {
                                "multiple" : true
                            },
                            "rules" : {
                                "required" : true
                            }
                        },
                        "typectenat" : {
                            "inputType" : "select",
                            "label" : "Type d’indicateur",
                            "groupOptions" : false,
                            "groupSelected" : false,
                            "placeholder" : "Choisir un type d’indicateur",
                            "list" : "typeindicateur",
                            "select2" : {
                                "multiple" : false
                            },
                            "rules" : {
                                "required" : true
                            }
                        },
                        "definition" : {
                            "inputType" : "textarea",
                            "label" : "Définition",
                            "placeholder" : "Définition",
                            "rules" : {
                                "required" : true
                            }
                        },
                        "methodeCalcul" : {
                            "inputType" : "textarea",
                            "label" : "Méthode de calcul",
                            "placeholder" : "Méthode de calcul",
                            "rules" : {
                                "required" : true
                            }
                        },
                        "unity1" : {
                            "inputType" : "text",
                            "label" : "Unité",
                            "placeholder" : "Unité",
                            "rules" : {
                                "required" : true
                            }
                        },
                        "sourceData1" : {
                            "inputType" : "textarea",
                            "label" : "Où trouver les données ?",
                            "placeholder" : "Où trouver les données ?",
                            "rules" : {
                                "required" : true
                            }
                        },
                        "originIndicator" : {
                            "inputType" : "text",
                            "label" : "Origine de l’indicateur",
                            "placeholder" : "Origine de l’indicateur"
                        },
                        "echelleApplication" : {
                            "inputType" : "select",
                            "label" : "A quelle échelle l’indicateur a-t-il du sens ? / peut elle etre calculée ?",
                            "placeholder" : "A quelle échelle l’indicateur a-t-il du sens ? / peut elle etre calculée ?",
                            "list" : "echelle",
                            "select2" : {
                                "multiple" : true
                            },
                            "rules" : {
                                "required" : true
                            }
                        }
                    }
                },
                "onload" : {
                    "actions" : {
                        "setTitle" : "Ajouter un nouvel indicateur",
                        "html" : {
                            "infocustom" : ""
                        },
                        "presetValue" : {
                            "type" : "indicator"
                        },
                        "hide" : {
                            "urlsarray" : 1,
                            "locationlocation" : 1,
                            "formLocalityformLocality" : 1,
                            "parentfinder" : 1,
                            "tagstags" : 1,
                            "descriptiontextarea" : 1,
                            "imageuploader" : 1,
                            "parentfinder" : 1,
                            "breadcrumbcustom" : 1
                        }
                    }
                },
                "afterSave" : "costum.ctenat.indicator.afterSave"
            }
        },
        "addPhoto" : {
            "dynFormCostum" : {
                "beforeBuild":{
                    "properties":{
                        "info":{
                            "html":"<br/>Ajouter des images sur votre page d'accueil<hr>"
                        }
                    }
                },
                "onload" : {
                    "setTitle" : "Ajout de photos",
                    "actions" : {
                        "hide" : {
                            "folderfolder" : 1,
                            "newsCreationcheckboxSimple" : 1
                        }
                    }
                }
            }
        },
        "badge":{
            "add":"onlyAdmin",
            "explainText":"",
            "dynFormCostum" : {
                "beforeBuild" : {
                    "properties" : {
                        "info" : {
                            "inputType" : "custom",
                            "order":1,
                            "html":"<p><i class='fa fa-info-circle'></i> Proposer les badges domaines d'action et cible de développement durable<br/> qui permettront aux projets menés sur les territoires de se définir et ainsi de permettre de construire l'orientation stratégique des CTE</p>"
                        },
                        "category":{
                            "inputType" : "select",
                            "label" : "Catégorie du badge",
                            "order":2,
                            "placeholder" : "Sélectionner une catégorie",
                            "options" : {"cibleDD" : "Développement durable", "domainAction":"Domaine d'action", "strategy":"Orientation stratégique"},
                            "rules" : {"required": true}
                        },
                       "parent" : {
                            "inputType" : "finder",
                            "label" : "Ajouter un badge parent",
                            "initMe":false,
                            "placeholder":"Rechercher un badge existant",
                            "rules" : { "required" : false, "lengthMin":[1, "parent"]}, 
                            "initType": ["badges"],
                            "openSearch" :true
                        },
                        "name" : {
                            "label" : "Titre du badge",
                            "order":3,
                            "placeholder" : "Titre du badge"
                        },
                        "icon" : {
                            "order":8
                        },
                        "color" : {
                            "order":9
                        }
                    }
                },
                "onload" : {
                    "actions" : {
                        "setTitle" : "Ajouter un domaine d'action ou une cible de développement durable",
                        "hide" : {
                            "tagstags":1,
                            "structagstags":1,
                            "icontext":1,
                            "colortext":1
                        },
                        "presetValue":{
                            "tags":{
                                "value":"",
                                "forced":true
                            }
                        }   
                    }
                },
                "afterSave" : "costum.ctenat.badges.afterSave"
            }
        },
         "forum" : {
            "color" : "azure",
            "icon" : "commentsr",
            "name" : "Forum",
            "sameAs" : "poi",
            "formType" : "forum",
            "formParent" : "poi",
            "add" : true,
            "createLabel" : "Ajouter un forum",
            "dynFormCostum" : {
                "beforeBuild":{
                    "properties" : {
                        "structags" : {
                            "inputType" : "hidden"
                        }
                    }
                },
                "onload" : {
                    "actions" : {
                        "setTitle" : "Créer un forum",
                        "html" : {
                            "nametext>label" : "Nom du forum",
                            "infocustom" : ""
                        },
                        "presetValue" : {
                            "type" : "forum"
                        },
                        "hide" : {
                            "formLocalityformLocality" : 1,
                            "breadcrumbcustom" : 1,
                            "parentfinder" : 1,
                            "urlsarray" : 1,
                            "tagstags":1
                        }
                    }
                }
            }
        },
        "projects" : {
            "color" : "dark",
            "icon" : "map-marker",
            "name" : "Territoire CTE",
            "add" : true,
            "createLabel" : "Candidater au CTE",
            "dynFormCostum" : {
                "beforeBuild" : {
                    "properties" : {
                        "scope" : {
                            "inputType" : "scope",
                            "label" : "Quel est votre territoire (déclarer  les EPCI concernées)",
                            "order" : 5,
                            "subParams" : {
                                "cities" : {
                                    "type" : [ 
                                        "zones"
                                    ]
                                }
                            }
                        },
                        "why" : {
                            "order" : 7,
                            "inputType" : "textarea",
                            "markdown" : true,
                            "label" : "Décrivez le contexte de mise en oeuvre de votre CTE et ses principales motivations",
                            "rules" : {
                                "maxlength" : 2000
                            }
                        },
                        "filRouge":{
                            "order" : 8,
                            "inputType" : "textarea",
                            "markdown" : true,
                            "label" : "Déclarer le fil rouge du CTE",
                            "rules" : {
                                "maxlength" : 2000
                            }
                        },
                        "siren" : {
                            "order" : 9,
                            "inputType" : "text",
                            "label" : "Numéro SIREN?"
                        },
                       
                        "nbHabitant" : {
                            "order" : 11,
                            "inputType" : "text",
                            "label" : "Nombre d'habitants concernés?"
                        },
                        "preferences[isOpenEdition]" : {
                            "inputType" : "hidden",
                            "value" : false
                        },
                        "category" : {
                            "inputType" : "hidden",
                            "value" : "cteR"
                        },
                        "parent":{
                            "rules" : {}
                        }
                        
                    }
                },
                "onload" : {
                    "actions" : {
                        "setTitle" : "Informations clé du Territoire porteur du CTE",
                        "presetValue" : {
                            "public" : false,
                            "preferences[isOpenEdition]":false
                        },
                        "hide" : {
                            "infocustom":1,
                            "publiccheckboxSimple" : 1,
                            "parentfinder":1,
                            "urltext" : 1,
                            "tagstags" : 1,
                            "shortDescriptiontextarea" : 1,
                            "publiccheckboxSimple" : 1
                        },
                        "required" : {
                            "links" : 0
                        }
                    }
                }
            }
        }
    },
    "lists":{        
        "domainAction":{
            "type":"badges",
            "category":"domainAction",
            "sourceKey":true
        },
        "cibleDD":{
            "type":"badges",
            "category":"cibleDD",
            "sourceKey":true
        },
        "strategy":{
            "type":"badges",
            "category":"strategy",
            "sourceKey":true
        },
        "typeindicateur":{
            "Impact" : "Impact",
            "Résultat" : "Résultat",
            "Réalisation" : "Réalisation"
        },
        "echelle" : {
            "Echelle de l’action" : "Echelle de l’action",
            "Echelle du territoire" : "Echelle du territoire"

        }
    },
    "survey" : {
        "generate" : {
            "auto" : true,
            "if" : {
                "status" : "selected"
            },
            "text" : "En cliquant Lorem ipsum dolor sit amet, consectetur adipisicing elit, sed do eiusmod tempor incididunt ut labore et dolore magna aliqua. Ut enim ad minim veniam, quis nostrud exercitation ullamco laboris nisi ut aliquip ex ea commodo consequat. Duis aute irure dolor in reprehenderit in voluptate velit essecillum dolore eu fugiat nulla pariatur. Excepteur sint occaecat cupidatat non proident, sunt in culpa qui officia deserunt mollit anim id est laborum.",
            "title" : "Ouvrez votre territoire aux projets locaux"
        }
    },
    "dynForm" : {
        "locality" : {
            "info" : "<p class='text-red'>NB : indiquer le code postal simple de votre commune. Les CEDEX ne sont pas reconnus</p>"
        }
    },
    "searchOpenMenu" : [ 
        {
            "url" : "#search",
            "msg" : "Tous les territoires"
        }
    ]
}