{
    "slug" : "lapossession",
    "welcomeTpl" : "costum.views.custom.lapossession.home",
    "sourceKey" : true,
    "filters" : {
        "sourceKey" : true
    },
    "favicon" : "/images/lapossession/logoPossession.jpg",
    "metaImg" : "/images/lapossession/logoPossession.jpg",
    "logoMin" : "/images/lapossession/logoPossession.jpg",
    "logo" : "/images/lapossession/logoPossession.jpg",
    "js" : {
        "urls" : [ 
            "index.js"
        ]
    },
    "css" : {
        "urls" : [
            "index.css"
        ],
        "font" : {
            "url" : "/font/lapossession/MorebiRoundedMediumStencil.otf"
        },
        "loader" : {
            "background" : "white",
            "ring1" : {
                "color" : "#3253a0",
                "height" : 360,
                "width" : 360,
                "left" : -15,
                "borderWidth" : 4,
                "top" : -35
            },
            "ring2" : {
                "color" : "#3ca936",
                "height" : 350,
                "width" : 350,
                "left" : -10,
                "borderWidth" : 5,
                "top" : -30
            }
        },
        "progress" : {
            "value" : {
                "background" : "#3253a0"
            },
            "bar" : {
                "background" : "#3ca936"
            }
        },
        "menuTop" : {
            "background" : "rgba(0,0,0,.6)",
            "button" : {
                "paddingTop" : 1,
                "fontSize" : 25,
                "color" : "grey"
            },
            "badge" : {
                "display" : "none"
            },
            "scopeBtn" : {
                "display" : "none"
            },
            "filterBtn" : {
                "display" : "none"
            },
            "connectBtn" : {
                "background" : "#5b2649",
                "color" : "white",
                "fontSize" : 13,
                "borderRadius" : 10,
                "padding" : "8px 15px"
            }
        },
        "menuApp" : {
            "top" : "50",
            "background" : "#f6f6f6",
            "button" : {
                "fontSize" : 25,
                "color" : "#41445c",
                "hover" : {
                    "borderBottom" : "2px solid #fff"
                }
            }
        },
        "button" : {
            "footer" : {
                "add" : {
                    "bottom" : 25,
                    "background" : "transparent",
                    "color" : "black"
                },
                "toolbarAdds" : {
                    "bottom" : 30
                }
            }
        },
        "color" : {
            "purple" : "this.colors.pink"
        }
    },
    "htmlConstruct" : {
        "appRendering" : "horizontal",
        "header" : {
            "menuTop" : {
                "navLeft" : {
                    "logo" : {
                        "height" : 40
                    },
                    "searchBar" : false,
                    "useFilter" : {
                        "scopeFilter" : false,
                        "showFilter" : false
                    },
                    "app" : {
                        "paddingLeft" : "30px",
                        "img" : true,
                        "class" : "text-center col-sm-8 col-xs-9 col-lg-9 menu-app-top App-top hidden-xs"
                    }
                },
                "navRight" : {
                    "connected" : {
                        "dropdownUser" : {
                            "languages" : true,
                            "statistics" : false,
                            "documentation" : false,
                            "donate" : false,
                            "admin" : true,
                            "settings" : false,
                            "logout" : true
                        },
                        "userProfil" : {
                            "img" : true
                        },
                        "networkFloop" : false,
                        "notifications" : false,
                        "dda" : false,
                        "chat" : false,
                        "home" : false,
                        "app" : false
                    },
                    "disconnected" : {
                        "languages" : true,
                        "login" : true
                    }
                }
            }
        },
        "footer" : {
            "add" : true,
            "donation" : false
        },
        "adminPanel" : {
            "add" : false,
            "statistic" : true,
            "directory" : true,
            "community":{"show":true},
            "reference" : {"show":true}
        },
        "footer" : {
            "url" : "costum.views.custom.lapossession.footer"
        },
        "element" : {
            "js" : "about.js",
            "initView" : "detail",
            "menuLeft" : {
                "detail" : true,
                "community" : true,
                "gallery" : true,
                "events" : true,
                "projects" : true,
                "ressources" : true,
                "classifieds" : true,
                "jobs" : true
            },
            "menuTop" : {
                "img" : true,
                "btnGroup" : {
                    "imgProfil":true,
                    "nameProfil":true,
                    "newspaper" : true,
                    "cospace":true,
                    "chat":true,
                    "create":true,
                    "params" : {
                        "dropdown":{
                            "history" : true,
                            "settings" : true,
                            "mindmap" : true,
                            "editSlug" : true,
                            "delete" : true
                        }
                    }
                }
            }
        },
        "redirect" : {
            "logged" : "welcome",
            "unlogged" : "welcome"
        }
    },
            "typeObj" : {
            "classifieds" : {
                "add" : true
            },
            "events" : {
                "add" : true
            },
            "organization" : {  
                "add" : true,
                "dynFormCostum" : {
                    "beforeBuild" : {
                        "properties" : {
                            "category" : {
                                "placeholder" : "Catégorie d'action",
                                "inputType" : "select",
                                "label" : "Catégorie",
                                "order" : 5,
                                "options" : {
                                    "citoyennete" : "citoyennete",
                                    "energie" : "energie",
                                    "construction" : "construction",
                                    "communs" : "communs",
                                    "dechets" : "dechets",
                                    "education" : "education",
                                    "economie" : "economie",
                                    "alimentation/sante" : "alimentation/sante"
                                }
                            }
                        }
                    }
                }
            }
        },
        "lists":{        
        "domainAction":{
            "type":"badges",
            "category":"domainAction",
            "sourceKey":true
        }
    },
    "app" : {
        "#annonces" : {
            "hash" : "#app.annonces",
            "icon" : "cogs",
            "urlExtra" : "/page/Annonces",
            "nameMenuTop" : "Les Annonces",
            "subdomainName" : "",
            "img" : "/images/lapossession/icones/annonce.svg",
            "placeholderMainSearch" : "what are you looking for ?",
            "inMenu":true,
            "inMenuTop" : true,
            "useHeader" : false,
            "useFilter" : true,
            "useFooter" : true,
            "searchObject" : {
                "indexStep" : "0",
                "sourceKey" : "lapossession"
            }
        },
        "#agenda" : {
            "nameMenuTop" : "Le calendrier",
            "subdomainName" : "",
            "img" : "/images/lapossession/icones/calendrier.svg",
            "inMenu":true,
            "inMenuTop" : true
        },
        "#citoyens" : {
            "hash" : "#app.search",
            "urlExtra" : "/page/citoyens", 
            "subdomainName" : "",
            "icon" : "",
            "placeholderMainSearch" : "Tous les citoyens",
            "useHeader" : false,
            "useFilter" : false,
            "useFooter" : true,
            "filters" : {
                "types" :[
                    "citoyens"
                ]
            }, 
            "searchObject" : {
                "indexStep" : "0",
                "links" : [
                    "follows",
                    "memberOf"
                ]
            }
        },
        "#live" : {
            "slug" : "lapossession",
            "subdomainName" : "",
            "icon" : "newspaper-o",
            "nameMenuTop" : "Actualités",
            "img" : "/images/lapossession/icones/Actu.svg",
            "formCreate" :false,
            "inMenu" : true,
            "inMenuTop" :true,
            "viewMode" : "list",
            "placeholderMainSearch" : "Actualité",
            "useFilter" : false
        },
        "#carto" : {
            "hash" : "#app.view",
            "img" : "/images/lapossession/icones/Carto.svg",
            "nameMenuTop" : "Carte",
            "subdomainName" : "",
            "icon" : "",
            "urlExtra" : "/page/smarterre/url/costum.views.custom.lapossession.carto",
            "inMenu" : true,
            "inMenuTop" :true,
            "useFooter" : false,
            "viewMode" : "list",
            "placeholderMainSearch" : "Carte",
            "useFilter" : false
        },
        "#reseau" : {
            "hash" : "#app.search",
            "urlExtra" : "/page/reseau",
            "nameMenuTop" : "Réseau",
            "img" : "/images/lapossession/icones/MonReseau.svg",
            "inMenu" : true,
            "inMenuTop" :true,
            "subdomainName" : "",
            "icon" : "",
            "viewMode" : "list",
            "placeholderMainSearch" : "Mon Réseau",
            "useFilter" : false,
            "filters" : {
                "types" :[
                    "citoyens"
                ]
            }, 
            "searchObject" : {
                "links" : [
                    "follows"
                ]
            }
        },
        "#mentions" : {
            "hash" : "#app.view",
            "subdomainName" : "",
            "icon" : "",
            "urlExtra" : "/page/lapossession/url/costum.views.custom.lapossession.mentions",
            "inMenu" : false,
            "viewMode" : "list",
            "placeholderMainSearch" : "Mentions légales",
            "useFilter" : false
        },
        "#politiqueConf" : {
            "hash" : "#app.view",
            "subdomainName" : "",
            "icon" : "",
            "urlExtra" : "/page/lapossession/url/costum.views.custom.lapossession.politiqueConf",
            "inMenu" : false,
            "placeholderMainSearch" : "Politique de confidentialité",
            "useFilter" : false
        },
        "#search" : {
            "hash" : "#app.search",
            "img" : "/images/lapossession/icones/Search.svg",
            "urlExtra" : "/page/organizations",
            "inMenu" : true,
            "inMenuTop" :true,
            "useFooter" : false,
            "nameMenuTop" : "Recherche",
            "subdomainName" : "",
            "viewMode" : "list",
            "icon" : "search",
            "nameMenuTop" : "Recherche",
            "placeholderMainSearch" : "Search",
            "useFilter" : false,
            "filters" : {
                "type" : [
                    "organizations"
                ]
            },
            "searchObject" : {
                "indexStep" : "0",
                "sourceKey" : "lapossession"
            }
        },
        "#energie" : {
            "hash" : "#app.search",
            "urlExtra" : "/page/energie", 
            "subdomainName" : "thematique energie",
            "placeholderMainSearch" : "thematique energie",
            "useHeader" : false,
            "useFilter" : false,
            "useFooter" : true,
            "filters" : {
                "category" : "energie",
                "types" : [ 
                    "organizations"
                ]
            },
            "searchObject" : {
                "indexStep" : "0",
                "sourceKey" : "lapossession"
            }
        },
        "#citoyennete" : {
            "hash" : "#app.search",
            "urlExtra" : "/page/citoyennete", 
            "subdomainName" : "thématique citoyennete",
            "placeholderMainSearch" : "thématique citoyennete",
            "useHeader" : false,
            "useFilter" : false,
            "useFooter" : true,
            "filters" : {
                "category" : "citoyennete",
                "types" : [ 
                    "organizations"
                ]
            },
            "searchObject" : {
                "indexStep" : "0",
                "sourceKey" : "lapossession"
            }
        },
        "#construction" : {
            "hash" : "#app.search",
            "urlExtra" : "/page/construction", 
            "subdomainName" : "thematique construction",
            "placeholderMainSearch" : "thematique construction",
            "useHeader" : false,
            "useFilter" : false,
            "useFooter" : true,
            "filters" : {
                "category" : "construction",
                "types" : [ 
                    "organizations"
                ]
            },
            "searchObject" : {
                "indexStep" : "0",
                "sourceKey" : "lapossession"
            }
        },
        "#communs" : {
            "hash" : "#app.search",
            "urlExtra" : "/page/communs", 
            "subdomainName" : "thématique communs",
            "placeholderMainSearch" : "thematique communs",
            "useHeader" : false,
            "useFilter" : false,
            "useFooter" : true,
            "filters" : {
                "category" : "communs",
                "types" : [ 
                    "organizations"
                ]
            },
            "searchObject" : {
                "indexStep" : "0",
                "sourceKey" : "lapossession"
            }
        },
        "#dechets" : {
            "hash" : "#app.search",
            "urlExtra" : "/page/dechets", 
            "subdomainName" : "thématique dechets",
            "placeholderMainSearch" : "thematique dechets",
            "useHeader" : false,
            "useFilter" : false,
            "useFooter" : true,
            "filters" : {
                "category" : "dechets",
                "types" : [ 
                    "organizations"
                ]
            },
            "searchObject" : {
                "indexStep" : "0",
                "sourceKey" : "lapossession"
            }
        },
        "#education" : {
            "hash" : "#app.search",
            "urlExtra" : "/page/education", 
            "subdomainName" : "thématique education",
            "placeholderMainSearch" : "thématique education",
            "useHeader" : false,
            "useFilter" : false,
            "useFooter" : true,
            "filters" : {
                "category" : "education",
                "types" : [ 
                    "organizations"
                ]
            },
            "searchObject" : {
                "indexStep" : "0",
                "sourceKey" : "lapossession"
            }
        },
        "#economie" : {
            "hash" : "#app.search",
            "urlExtra" : "/page/economie", 
            "subdomainName" : "economie",
            "placeholderMainSearch" : "thématique economie",
            "useHeader" : false,
            "useFilter" : false,
            "useFooter" : true,
            "filters" : {
                "category" : "economie",
                "types" : [ 
                    "organizations"
                ]
            },
            "searchObject" : {
                "indexStep" : "0",
                "sourceKey" : "lapossession"
            }
        },
        "#alimentation/sante" : {
            "hash" : "#app.search",
            "urlExtra" : "/page/alimentation & sante", 
            "subdomainName" : "thématique alimentation/alimentation & sante",
            "placeholderMainSearch" : "alimentation/alimentation & sante",
            "useHeader" : false,
            "useFilter" : false,
            "useFooter" : true,
            "filters" : {
                "category" : "alimentation & sante",
                "types" : [ 
                    "organizations"
                ]
            },
            "searchObject" : {
                "indexStep" : "0",
                "sourceKey" : "lapossession"
            }
        }
    }
}
