    {
        "_id" : ObjectId("5d4d21192f62662c078b4575"),
        "contextId" : "5d0b6b7fa1d9f073798b4568",
        "contextType" : "organizations",
        "name" : "Privilégier le covoiturage",
        "created" : NumberLong(1565335833),
        "updated" : NumberLong(1565335833),
        "docType" : "smarterre.transport"
    }
    {
        "_id" : ObjectId("5d4d21222f62662b088b456b"),
        "contextId" : "5d0b6b7fa1d9f073798b4568",
        "contextType" : "organizations",
        "name" : "Pour les événements personnels : sorties entre amis, famille",
        "created" : NumberLong(1565335842),
        "updated" : NumberLong(1565335842),
        "parentId" : "5d4d21192f62662c078b4575",
        "docType" : "smarterre.transport"
    }
    {
        "_id" : ObjectId("5d4d212b2f6266f3048b457c"),
        "contextId" : "5d0b6b7fa1d9f073798b4568",
        "contextType" : "organizations",
        "name" : "Pour les événements culturels : festivals, concerts, etc",
        "created" : NumberLong(1565335851),
        "updated" : NumberLong(1565335851),
        "parentId" : "5d4d21192f62662c078b4575",
        "docType" : "smarterre.transport"
    }
    {
        "_id" : ObjectId("5d4d21322f6266f3048b457d"),
        "contextId" : "5d0b6b7fa1d9f073798b4568",
        "contextType" : "organizations",
        "name" : "Pour aller au boulot",
        "created" : NumberLong(1565335858),
        "updated" : NumberLong(1565335858),
        "parentId" : "5d4d21192f62662c078b4575",
        "docType" : "smarterre.transport"
    }
    {
        "_id" : ObjectId("5d4d213a2f62662d088b456a"),
        "contextId" : "5d0b6b7fa1d9f073798b4568",
        "contextType" : "organizations",
        "name" : "La voiture oui, mais pas tout seul !",
        "created" : NumberLong(1565335866),
        "updated" : NumberLong(1565335866),
        "parentId" : "5d4d21192f62662c078b4575",
        "docType" : "smarterre.transport"
    }
    {
        "_id" : ObjectId("5d4d21442f6266b6078b456e"),
        "contextId" : "5d0b6b7fa1d9f073798b4568",
        "contextType" : "organizations",
        "name" : "Les communs",
        "created" : NumberLong(1565335876),
        "updated" : NumberLong(1565335876),
        "docType" : "smarterre.transport"
    }
    {
        "_id" : ObjectId("5d4d214c2f6266b1078b4570"),
        "contextId" : "5d0b6b7fa1d9f073798b4568",
        "contextType" : "organizations",
        "name" : "Transport en commun",
        "created" : NumberLong(1565335884),
        "updated" : NumberLong(1565335884),
        "parentId" : "5d4d21442f6266b6078b456e",
        "docType" : "smarterre.transport"
    }
    {
        "_id" : ObjectId("5d4d21542f6266b1078b4571"),
        "contextId" : "5d0b6b7fa1d9f073798b4568",
        "contextType" : "organizations",
        "name" : "Télé travail",
        "created" : NumberLong(1565335892),
        "updated" : NumberLong(1565335892),
        "parentId" : "5d4d21442f6266b6078b456e",
        "docType" : "smarterre.transport"
    }
    {
        "_id" : ObjectId("5d4d215b2f6266b1078b4572"),
        "contextId" : "5d0b6b7fa1d9f073798b4568",
        "contextType" : "organizations",
        "name" : "Plateforme de coworking, espace partagés",
        "created" : NumberLong(1565335899),
        "updated" : NumberLong(1565335899),
        "parentId" : "5d4d21442f6266b6078b456e",
        "docType" : "smarterre.transport"
    }
    {
        "_id" : ObjectId("5d4d21632f626635078b4571"),
        "contextId" : "5d0b6b7fa1d9f073798b4568",
        "contextType" : "organizations",
        "name" : "Décentralisation et délocalisation des institutions et des entreprises",
        "created" : NumberLong(1565335907),
        "updated" : NumberLong(1565335907),
        "parentId" : "5d4d21442f6266b6078b456e",
        "docType" : "smarterre.transport"
    }
    {
        "_id" : ObjectId("5d4d216d2f626627068b457b"),
        "contextId" : "5d0b6b7fa1d9f073798b4568",
        "contextType" : "organizations",
        "name" : "Faible impact carbone",
        "created" : NumberLong(1565335917),
        "updated" : NumberLong(1565335917),
        "docType" : "smarterre.transport"
    }
    {
        "_id" : ObjectId("5d4d21742f626634078b4573"),
        "contextId" : "5d0b6b7fa1d9f073798b4568",
        "contextType" : "organizations",
        "name" : "Vélo Électrique",
        "created" : NumberLong(1565335924),
        "updated" : NumberLong(1565335924),
        "parentId" : "5d4d216d2f626627068b457b",
        "docType" : "smarterre.transport"
    }
    {
        "_id" : ObjectId("5d4d217a2f626634078b4574"),
        "contextId" : "5d0b6b7fa1d9f073798b4568",
        "contextType" : "organizations",
        "name" : "Voiture Électrique",
        "created" : NumberLong(1565335930),
        "updated" : NumberLong(1565335930),
        "parentId" : "5d4d216d2f626627068b457b",
        "docType" : "smarterre.transport"
    }
    {
        "_id" : ObjectId("5d4d21842f62662c078b4576"),
        "contextId" : "5d0b6b7fa1d9f073798b4568",
        "contextType" : "organizations",
        "name" : "Prend son vélo ou ses deux jambes pour les petits trajets quotidiens",
        "created" : NumberLong(1565335940),
        "updated" : NumberLong(1565335940),
        "parentId" : "5d4d216d2f626627068b457b",
        "docType" : "smarterre.transport"
    }
    {
        "_id" : ObjectId("5d4d219a2f6266f3048b457e"),
        "contextId" : "5d0b6b7fa1d9f073798b4568",
        "contextType" : "organizations",
        "name" : "Repenser les lieux de rencontres et les lieux géographiquement en fonction des participants",
        "created" : NumberLong(1565335962),
        "updated" : NumberLong(1565335962),
        "parentId" : "5d4d216d2f626627068b457b",
        "docType" : "smarterre.transport"
    }
    {
        "_id" : ObjectId("5d4d21ae2f62662d088b456b"),
        "contextId" : "5d0b6b7fa1d9f073798b4568",
        "contextType" : "organizations",
        "name" : "Pratiques - Usages",
        "created" : NumberLong(1565335982),
        "updated" : NumberLong(1565335982),
        "docType" : "smarterre.transport"
    }
    {
        "_id" : ObjectId("5d4d21b62f6266b6078b456f"),
        "contextId" : "5d0b6b7fa1d9f073798b4568",
        "contextType" : "organizations",
        "name" : "Privilégier les voitures électriques et hydriques",
        "created" : NumberLong(1565335990),
        "updated" : NumberLong(1565335990),
        "parentId" : "5d4d21ae2f62662d088b456b",
        "docType" : "smarterre.transport"
    }
    {
        "_id" : ObjectId("5d4d21be2f6266b1078b4573"),
        "contextId" : "5d0b6b7fa1d9f073798b4568",
        "contextType" : "organizations",
        "name" : "Banir l'auto-soloisme",
        "created" : NumberLong(1565335998),
        "updated" : NumberLong(1565335998),
        "parentId" : "5d4d21ae2f62662d088b456b",
        "docType" : "smarterre.transport"
    }
    {
        "_id" : ObjectId("5d4d21c42f6266b1078b4574"),
        "contextId" : "5d0b6b7fa1d9f073798b4568",
        "contextType" : "organizations",
        "name" : "Télé Travail",
        "created" : NumberLong(1565336004),
        "updated" : NumberLong(1565336004),
        "parentId" : "5d4d21ae2f62662d088b456b",
        "docType" : "smarterre.transport"
    }
    {
        "_id" : ObjectId("5d4d21d32f6266b3078b4570"),
        "contextId" : "5d0b6b7fa1d9f073798b4568",
        "contextType" : "organizations",
        "name" : "Indemnités kilométriques : salarié qui va au bureau à vélo bénéficie d'un crédit d'impôt",
        "created" : NumberLong(1565336019),
        "updated" : NumberLong(1565336019),
        "parentId" : "5d4d21ae2f62662d088b456b",
        "docType" : "smarterre.transport"
    }
    {
        "_id" : ObjectId("5d4d21e92f626627068b457c"),
        "contextId" : "5d0b6b7fa1d9f073798b4568",
        "contextType" : "organizations",
        "name" : "Résilience et Autonomie énergétique",
        "created" : NumberLong(1565336041),
        "updated" : NumberLong(1565336041),
        "parentId" : "5d4d21ae2f62662d088b456b",
        "docType" : "smarterre.transport"
    }
    {
        "_id" : ObjectId("5d4d21f32f626634078b4575"),
        "contextId" : "5d0b6b7fa1d9f073798b4568",
        "contextType" : "organizations",
        "name" : "Innovation",
        "created" : NumberLong(1565336051),
        "updated" : NumberLong(1565336051),
        "docType" : "smarterre.transport"
    }
    {
        "_id" : ObjectId("5d4d21fa2f62662c078b4577"),
        "contextId" : "5d0b6b7fa1d9f073798b4568",
        "contextType" : "organizations",
        "name" : "Route solaire",
        "created" : NumberLong(1565336058),
        "updated" : NumberLong(1565336058),
        "parentId" : "5d4d21f32f626634078b4575",
        "docType" : "smarterre.transport"
    }
    {
        "_id" : ObjectId("5d4d22022f62662b088b456c"),
        "contextId" : "5d0b6b7fa1d9f073798b4568",
        "contextType" : "organizations",
        "name" : "Agrinergie",
        "created" : NumberLong(1565336066),
        "updated" : NumberLong(1565336066),
        "parentId" : "5d4d21f32f626634078b4575",
        "docType" : "smarterre.transport"
    }
    {
        "_id" : ObjectId("5d4d22082f6266f3048b457f"),
        "contextId" : "5d0b6b7fa1d9f073798b4568",
        "contextType" : "organizations",
        "name" : "Innovations",
        "created" : NumberLong(1565336072),
        "updated" : NumberLong(1565336072),
        "parentId" : "5d4d21f32f626634078b4575",
        "docType" : "smarterre.transport"
    }
    {
        "_id" : ObjectId("5d4d22102f62662d088b456c"),
        "contextId" : "5d0b6b7fa1d9f073798b4568",
        "contextType" : "organizations",
        "name" : "Production",
        "created" : NumberLong(1565336080),
        "updated" : NumberLong(1565336080),
        "docType" : "smarterre.transport"
    }
    {
        "_id" : ObjectId("5d4d22162f6266b6078b4570"),
        "contextId" : "5d0b6b7fa1d9f073798b4568",
        "contextType" : "organizations",
        "name" : "Energies renouvelables",
        "created" : NumberLong(1565336086),
        "updated" : NumberLong(1565336086),
        "parentId" : "5d4d22102f62662d088b456c",
        "docType" : "smarterre.transport"
    }
    {
        "_id" : ObjectId("5d4d221e2f6266b1078b4575"),
        "contextId" : "5d0b6b7fa1d9f073798b4568",
        "contextType" : "organizations",
        "name" : "Solaire et Thermo Solaire",
        "created" : NumberLong(1565336094),
        "updated" : NumberLong(1565336094),
        "parentId" : "5d4d22102f62662d088b456c",
        "docType" : "smarterre.transport"
    }
    {
        "_id" : ObjectId("5d4d22252f626635078b4572"),
        "contextId" : "5d0b6b7fa1d9f073798b4568",
        "contextType" : "organizations",
        "name" : "Eoliennes",
        "created" : NumberLong(1565336101),
        "updated" : NumberLong(1565336101),
        "parentId" : "5d4d22102f62662d088b456c",
        "docType" : "smarterre.transport"
    }
    {
        "_id" : ObjectId("5d4d222b2f626635078b4573"),
        "contextId" : "5d0b6b7fa1d9f073798b4568",
        "contextType" : "organizations",
        "name" : "Hydraulique",
        "created" : NumberLong(1565336107),
        "updated" : NumberLong(1565336107),
        "parentId" : "5d4d22102f62662d088b456c",
        "docType" : "smarterre.transport"
    }
    {
        "_id" : ObjectId("5d4d22332f626635078b4574"),
        "contextId" : "5d0b6b7fa1d9f073798b4568",
        "contextType" : "organizations",
        "name" : "Méthonol végétal",
        "created" : NumberLong(1565336115),
        "updated" : NumberLong(1565336115),
        "parentId" : "5d4d22102f62662d088b456c",
        "docType" : "smarterre.transport"
    }
    {
        "_id" : ObjectId("5d4d22392f626635078b4575"),
        "contextId" : "5d0b6b7fa1d9f073798b4568",
        "contextType" : "organizations",
        "name" : "Marée motrice",
        "created" : NumberLong(1565336121),
        "updated" : NumberLong(1565336121),
        "parentId" : "5d4d22102f62662d088b456c",
        "docType" : "smarterre.transport"
    }
    {
        "_id" : ObjectId("5d4d223f2f626635078b4576"),
        "contextId" : "5d0b6b7fa1d9f073798b4568",
        "contextType" : "organizations",
        "name" : "Géothermie",
        "created" : NumberLong(1565336127),
        "updated" : NumberLong(1565336127),
        "parentId" : "5d4d22102f62662d088b456c",
        "docType" : "smarterre.transport"
    }
    {
        "_id" : ObjectId("5d4d22472f6266b3078b4571"),
        "contextId" : "5d0b6b7fa1d9f073798b4568",
        "contextType" : "organizations",
        "name" : "Modèle distribué : pleins de petites centrales de production",
        "created" : NumberLong(1565336135),
        "updated" : NumberLong(1565336135),
        "parentId" : "5d4d22102f62662d088b456c",
        "docType" : "smarterre.transport"
    }
    {
        "_id" : ObjectId("5d4d22522f626627068b457d"),
        "contextId" : "5d0b6b7fa1d9f073798b4568",
        "contextType" : "organizations",
        "name" : "Moins de transport",
        "created" : NumberLong(1565336146),
        "updated" : NumberLong(1565336146),
        "docType" : "smarterre.transport"
    }
    {
        "_id" : ObjectId("5d4d225c2f626634078b4576"),
        "contextId" : "5d0b6b7fa1d9f073798b4568",
        "contextType" : "organizations",
        "name" : "Consommation locale, circuit court",
        "created" : NumberLong(1565336156),
        "updated" : NumberLong(1565336156),
        "parentId" : "5d4d22522f626627068b457d",
        "docType" : "smarterre.transport"
    }
    {
        "_id" : ObjectId("5d4d22692f62662c078b4578"),
        "contextId" : "5d0b6b7fa1d9f073798b4568",
        "contextType" : "organizations",
        "name" : "Plus de production locale",
        "created" : NumberLong(1565336169),
        "updated" : NumberLong(1565336169),
        "parentId" : "5d4d22522f626627068b457d",
        "docType" : "smarterre.transport"
    }
    {
        "_id" : ObjectId("5d4d22702f62662c078b4579"),
        "contextId" : "5d0b6b7fa1d9f073798b4568",
        "contextType" : "organizations",
        "name" : "Moins d'importation",
        "created" : NumberLong(1565336176),
        "updated" : NumberLong(1565336176),
        "parentId" : "5d4d22522f626627068b457d",
        "docType" : "smarterre.transport"
    }
    {
        "_id" : ObjectId("5d4d22802f62662b088b456d"),
        "contextId" : "5d0b6b7fa1d9f073798b4568",
        "contextType" : "organizations",
        "name" : "Autonomie domestique : Maîtrise de l'énergie au niveau de son habitat",
        "created" : NumberLong(1565336192),
        "updated" : NumberLong(1565336192),
        "parentId" : "5d4d22522f626627068b457d",
        "docType" : "smarterre.transport"
    }
    {
        "_id" : ObjectId("5d4d22ad2f6266b6078b4571"),
        "contextId" : "5d0b6b7fa1d9f073798b4568",
        "contextType" : "organizations",
        "name" : "Objectifs",
        "created" : NumberLong(1565336237),
        "updated" : NumberLong(1565336237),
        "docType" : "smarterre.transport"
    }
    {
        "_id" : ObjectId("5d4d22b52f6266b1078b4576"),
        "contextId" : "5d0b6b7fa1d9f073798b4568",
        "contextType" : "organizations",
        "name" : "Moins de pollution",
        "created" : NumberLong(1565336245),
        "updated" : NumberLong(1565336245),
        "parentId" : "5d4d22ad2f6266b6078b4571",
        "docType" : "smarterre.transport"
    }
    {
        "_id" : ObjectId("5d4d22bd2f6266b1078b4577"),
        "contextId" : "5d0b6b7fa1d9f073798b4568",
        "contextType" : "organizations",
        "name" : "Moins d'embouteillages",
        "created" : NumberLong(1565336253),
        "updated" : NumberLong(1565336253),
        "parentId" : "5d4d22ad2f6266b6078b4571",
        "docType" : "smarterre.transport"
    }
    {
        "_id" : ObjectId("5d4d22ca2f6266b3078b4572"),
        "contextId" : "5d0b6b7fa1d9f073798b4568",
        "contextType" : "organizations",
        "name" : "Apport social : rencontres, partage, gain de temps, moins de stress",
        "created" : NumberLong(1565336266),
        "updated" : NumberLong(1565336266),
        "parentId" : "5d4d22ad2f6266b6078b4571",
        "docType" : "smarterre.transport"
    }
    {
        "_id" : ObjectId("5d4d22d02f6266b3078b4573"),
        "contextId" : "5d0b6b7fa1d9f073798b4568",
        "contextType" : "organizations",
        "name" : "Économique : Réduction des coûts",
        "created" : NumberLong(1565336272),
        "updated" : NumberLong(1565336272),
        "parentId" : "5d4d22ad2f6266b6078b4571",
        "docType" : "smarterre.transport"
    }
    {
        "_id" : ObjectId("5d4d22de2f626634078b4577"),
        "contextId" : "5d0b6b7fa1d9f073798b4568",
        "contextType" : "organizations",
        "name" : "Investissement pour une politique globale",
        "created" : NumberLong(1565336286),
        "updated" : NumberLong(1565336286),
        "parentId" : "5d4d22ad2f6266b6078b4571",
        "docType" : "smarterre.transport"
    }
    {
        "_id" : ObjectId("5d4d22ea2f62662c078b457a"),
        "contextId" : "5d0b6b7fa1d9f073798b4568",
        "contextType" : "organizations",
        "name" : "STOP au tout voiture !! Repenser l'aménagement des villes de nouveaux quartiers",
        "created" : NumberLong(1565336298),
        "updated" : NumberLong(1565336298),
        "parentId" : "5d4d22ad2f6266b6078b4571",
        "docType" : "smarterre.transport"
    }
    {
        "_id" : ObjectId("5d4d22f42f62662b088b456f"),
        "contextId" : "5d0b6b7fa1d9f073798b4568",
        "contextType" : "organizations",
        "name" : "C'est en faisant des pistes cyclables que l'on a des cyclistes",
        "created" : NumberLong(1565336308),
        "updated" : NumberLong(1565336308),
        "parentId" : "5d4d22ad2f6266b6078b4571",
        "docType" : "smarterre.transport"
    }